[
    {
        "name": "id",
        "dbType": "increments",
        "htmlType": "",
        "validations": "",
        "searchable": false,
        "fillable": false,
        "primary": true,
        "inForm": false,
        "inIndex": false
    },
    {
        "name": "title",
        "dbType": "string",
        "htmlType": "text",
        "validations": "required",
        "searchable": true
    },
    {
        "name": "notes",
        "dbType": "text",
        "htmlType": "textarea"
    },
    {
        "name": "is_private",
        "dbType": "string",
        "htmlType": "radio,Public,Private",
        "validations": "required",
        "searchable": true
    },
    {
        "name": "category",
        "dbType": "string",
        "htmlType": "select,Event,Shift Cover,Request Time off",
        "searchable": true
    },
    {
        "name": "creator_id",
        "dbType": "integer",
        "searchable": true
    },
    {
        "name": "users",
        "type": "relation",
        "relation": "mtm,User,calendar_users,calendar_id,user_id"
    },
    {
        "name": "created_at",
        "dbType": "timestamp",
        "htmlType": "",
        "validations": "",
        "searchable": false,
        "fillable": false,
        "primary": false,
        "inForm": false,
        "inIndex": false
    },
    {
        "name": "updated_at",
        "dbType": "timestamp",
        "htmlType": "",
        "validations": "",
        "searchable": false,
        "fillable": false,
        "primary": false,
        "inForm": false,
        "inIndex": false
    }
]
